<?xml version="1.0" encoding="UTF-8" standalone="no"?>
<!-- Created with Inkscape (http://www.inkscape.org/) -->

<svg
   xmlns:dc="http://purl.org/dc/elements/1.1/"
   xmlns:cc="http://creativecommons.org/ns#"
   xmlns:rdf="http://www.w3.org/1999/02/22-rdf-syntax-ns#"
   xmlns:svg="http://www.w3.org/2000/svg"
   xmlns="http://www.w3.org/2000/svg"
   xmlns:sodipodi="http://sodipodi.sourceforge.net/DTD/sodipodi-0.dtd"
   xmlns:inkscape="http://www.inkscape.org/namespaces/inkscape"
   width="48.085274mm"
   height="48.086643mm"
   viewBox="0 0 48.085274 48.086643"
   version="1.1"
   id="svg161"
   inkscape:version="0.92.3 (2405546, 2018-03-11)"
   sodipodi:docname="Rplot.svg">
  <defs
     id="defs155" />
  <sodipodi:namedview
     id="base"
     pagecolor="#ffffff"
     bordercolor="#666666"
     borderopacity="1.0"
     inkscape:pageopacity="0.0"
     inkscape:pageshadow="2"
     inkscape:zoom="2.4181818"
     inkscape:cx="122.85714"
     inkscape:cy="92.857143"
     inkscape:document-units="mm"
     inkscape:current-layer="layer1"
     showgrid="false"
     fit-margin-top="0"
     fit-margin-left="0"
     fit-margin-right="0"
     fit-margin-bottom="0"
     inkscape:pagecheckerboard="true"
     inkscape:window-width="1303"
     inkscape:window-height="713"
     inkscape:window-x="63"
     inkscape:window-y="27"
     inkscape:window-maximized="1" />
  <metadata
     id="metadata158">
    <rdf:RDF>
      <cc:Work
         rdf:about="">
        <dc:format>image/svg+xml</dc:format>
        <dc:type
           rdf:resource="http://purl.org/dc/dcmitype/StillImage" />
        <dc:title></dc:title>
      </cc:Work>
    </rdf:RDF>
  </metadata>
  <g
     inkscape:label="Calque 1"
     inkscape:groupmode="layer"
     id="layer1"
     transform="translate(-37.189505,-31.80787)">
    <path
       style="fill:none;stroke:#a8a8a8;stroke-width:0.26458332;stroke-linecap:round;stroke-linejoin:round;stroke-miterlimit:10;stroke-opacity:1"
       d="m 81.938537,74.493292 -6.979761,2.95038"
       id="path35"
       inkscape:connector-curvature="0" />
    <path
       style="fill:none;stroke:#a8a8a8;stroke-width:0.26458332;stroke-linecap:round;stroke-linejoin:round;stroke-miterlimit:10;stroke-opacity:1"
       d="M 81.809,73.935186 60.894516,75.080334"
       id="path37"
       inkscape:connector-curvature="0" />
    <path
       style="fill:none;stroke:#a8a8a8;stroke-width:0.26458332;stroke-linecap:round;stroke-linejoin:round;stroke-miterlimit:10;stroke-opacity:1"
       d="M 81.919244,73.24203 69.245427,68.333459"
       id="path39"
       inkscape:connector-curvature="0" />
    <path
       style="fill:none;stroke:#a8a8a8;stroke-width:0.26458332;stroke-linecap:round;stroke-linejoin:round;stroke-miterlimit:10;stroke-opacity:1"
       d="M 71.789284,77.757864 60.862819,75.508906"
       id="path41"
       inkscape:connector-curvature="0" />
    <path
       style="fill:none;stroke:#a8a8a8;stroke-width:0.26458332;stroke-linecap:round;stroke-linejoin:round;stroke-miterlimit:10;stroke-opacity:1"
       d="M 72.614729,76.633385 68.497153,69.1906"
       id="path43"
       inkscape:connector-curvature="0" />
    <path
       style="fill:none;stroke:#a8a8a8;stroke-width:0.26458332;stroke-linecap:round;stroke-linejoin:round;stroke-miterlimit:10;stroke-opacity:1"
       d="M 60.481103,74.070234 66.436986,68.83231"
       id="path45"
       inkscape:connector-curvature="0" />
    <path
       style="fill:none;stroke:#a8a8a8;stroke-width:0.26458332;stroke-linecap:round;stroke-linejoin:round;stroke-miterlimit:10;stroke-opacity:1"
       d="M 66.891738,66.265026 61.495339,56.362443"
       id="path47"
       inkscape:connector-curvature="0" />
    <path
       style="fill:none;stroke:#a8a8a8;stroke-width:0.26458332;stroke-linecap:round;stroke-linejoin:round;stroke-miterlimit:10;stroke-opacity:1"
       d="M 59.874766,53.446514 54.555541,44.053806"
       id="path49"
       inkscape:connector-curvature="0" />
    <path
       style="fill:none;stroke:#a8a8a8;stroke-width:0.26458332;stroke-linecap:round;stroke-linejoin:round;stroke-miterlimit:10;stroke-opacity:1"
       d="M 52.261106,41.81725 40.460965,35.522372"
       id="path51"
       inkscape:connector-curvature="0" />
    <path
       style="fill:none;stroke:#a8a8a8;stroke-width:0.26458332;stroke-linecap:round;stroke-linejoin:round;stroke-miterlimit:10;stroke-opacity:1"
       d="m 54.541762,41.14339 3.359654,-6.074393"
       id="path53"
       inkscape:connector-curvature="0" />
    <path
       style="fill:none;stroke:#a8a8a8;stroke-width:0.26458332;stroke-linecap:round;stroke-linejoin:round;stroke-miterlimit:10;stroke-opacity:1"
       d="M 40.655268,34.641805 57.042899,33.704739"
       id="path55"
       inkscape:connector-curvature="0" />
    <path
       style="fill:#e69e00;fill-opacity:1;fill-rule:nonzero;stroke:#000000;stroke-width:0.26458332;stroke-linecap:round;stroke-linejoin:round;stroke-miterlimit:10;stroke-opacity:1"
       d="m 85.142475,73.844238 c 0,2.224151 -3.33623,2.224151 -3.33623,0 0,-2.224157 3.33623,-2.224157 3.33623,0"
       id="path57"
       inkscape:connector-curvature="0" />
    <path
       style="fill:#e69e00;fill-opacity:1;fill-rule:nonzero;stroke:#000000;stroke-width:0.26458332;stroke-linecap:round;stroke-linejoin:round;stroke-miterlimit:10;stroke-opacity:1"
       d="m 75.091067,78.094105 c 0,2.224153 -3.336234,2.224153 -3.336234,0 0,-2.224154 3.336234,-2.224154 3.336234,0"
       id="path59"
       inkscape:connector-curvature="0" />
    <path
       style="fill:#e69e00;fill-opacity:1;fill-rule:nonzero;stroke:#000000;stroke-width:0.26458332;stroke-linecap:round;stroke-linejoin:round;stroke-miterlimit:10;stroke-opacity:1"
       d="m 60.897272,75.172663 c 0,2.224156 -3.33623,2.224156 -3.33623,0 0,-2.224154 3.33623,-2.224154 3.33623,0"
       id="path61"
       inkscape:connector-curvature="0" />
    <path
       style="fill:#e69e00;fill-opacity:1;fill-rule:nonzero;stroke:#000000;stroke-width:0.26458332;stroke-linecap:round;stroke-linejoin:round;stroke-miterlimit:10;stroke-opacity:1"
       d="m 69.358428,67.729878 c 0,2.224154 -3.336235,2.224154 -3.336235,0 0,-2.224151 3.336235,-2.224151 3.336235,0"
       id="path63"
       inkscape:connector-curvature="0" />
    <path
       style="fill:#e69e00;fill-opacity:1;fill-rule:nonzero;stroke:#000000;stroke-width:0.26458332;stroke-linecap:round;stroke-linejoin:round;stroke-miterlimit:10;stroke-opacity:1"
       d="m 62.364884,54.897588 c 0,2.225533 -3.33623,2.225533 -3.33623,0 0,-2.224153 3.33623,-2.224153 3.33623,0"
       id="path65"
       inkscape:connector-curvature="0" />
    <path
       style="fill:#e69e00;fill-opacity:1;fill-rule:nonzero;stroke:#000000;stroke-width:0.26458332;stroke-linecap:round;stroke-linejoin:round;stroke-miterlimit:10;stroke-opacity:1"
       d="m 55.401657,42.602732 c 0,2.224154 -3.336233,2.224154 -3.336233,0 0,-2.224154 3.336233,-2.224154 3.336233,0"
       id="path67"
       inkscape:connector-curvature="0" />
    <path
       style="fill:#e69e00;fill-opacity:1;fill-rule:nonzero;stroke:#000000;stroke-width:0.26458332;stroke-linecap:round;stroke-linejoin:round;stroke-miterlimit:10;stroke-opacity:1"
       d="m 40.658027,34.73689 c 0,2.224154 -3.33623,2.224154 -3.33623,0 0,-2.224154 3.33623,-2.224154 3.33623,0"
       id="path69"
       inkscape:connector-curvature="0" />
    <path
       style="fill:#e69e00;fill-opacity:1;fill-rule:nonzero;stroke:#000000;stroke-width:0.26458332;stroke-linecap:round;stroke-linejoin:round;stroke-miterlimit:10;stroke-opacity:1"
       d="m 60.37775,33.608277 c 0,2.224153 -3.33623,2.224153 -3.33623,0 0,-2.224154 3.33623,-2.224154 3.33623,0"
       id="path71"
       inkscape:connector-curvature="0" />
    <g
       transform="matrix(0.35277777,0,0,0.35277777,-14.967863,19.867858)"
       style="fill:#00008a;fill-opacity:1"
       id="g75">
      <g
         id="use73"
         transform="matrix(0.26458333,0,0,0.26458333,274.55078,157.19727)">
        <path
           inkscape:connector-curvature="0"
           id="path261"
           d="m 5.484375,-2.65625 h -3.0625 l -0.546875,1.25 c -0.136719,0.3125 -0.203125,0.542969 -0.203125,0.6875 0,0.125 0.054687,0.234375 0.171875,0.328125 0.113281,0.085937 0.363281,0.140625 0.75,0.171875 V 0 h -2.5 V -0.21875 C 0.425781,-0.28125 0.640625,-0.359375 0.734375,-0.453125 0.929688,-0.640625 1.15625,-1.019531 1.40625,-1.59375 L 4.203125,-8.125 H 4.40625 l 2.765625,6.609375 c 0.21875,0.53125 0.414063,0.875 0.59375,1.03125 0.1875,0.15625 0.441406,0.246094 0.765625,0.265625 V 0 H 5.390625 v -0.21875 c 0.320313,-0.007812 0.535156,-0.0625 0.640625,-0.15625 0.113281,-0.09375 0.171875,-0.203125 0.171875,-0.328125 0,-0.175781 -0.078125,-0.445313 -0.234375,-0.8125 z M 5.328125,-3.09375 3.984375,-6.3125 2.59375,-3.09375 Z m 0,0"
           style="stroke:none" />
      </g>
    </g>
    <g
       transform="matrix(0.35277777,0,0,0.35277777,-14.967863,19.867858)"
       style="fill:#00008a;fill-opacity:1"
       id="g79">
      <g
         id="use77"
         transform="matrix(0.26458333,0,0,0.26458333,246.05469,168.74414)">
        <path
           inkscape:connector-curvature="0"
           id="path257"
           d="m 5.546875,-4.0625 c 0.550781,0.125 0.960937,0.3125 1.234375,0.5625 0.375,0.367188 0.5625,0.808594 0.5625,1.328125 0,0.398437 -0.125,0.777344 -0.375,1.140625 C 6.71875,-0.675781 6.375,-0.414062 5.9375,-0.25 5.507812,-0.0820312 4.847656,0 3.953125,0 h -3.75 V -0.21875 H 0.5 c 0.332031,0 0.570312,-0.101562 0.71875,-0.3125 0.082031,-0.132812 0.125,-0.425781 0.125,-0.875 V -6.546875 C 1.34375,-7.035156 1.285156,-7.34375 1.171875,-7.46875 1.023438,-7.644531 0.800781,-7.734375 0.5,-7.734375 H 0.203125 v -0.21875 h 3.4375 c 0.632813,0 1.144531,0.046875 1.53125,0.140625 0.582031,0.148438 1.03125,0.402344 1.34375,0.765625 0.3125,0.355469 0.46875,0.761719 0.46875,1.21875 0,0.398437 -0.125,0.757813 -0.375,1.078125 -0.242187,0.3125 -0.59375,0.542969 -1.0625,0.6875 z M 2.46875,-4.375 c 0.144531,0.03125 0.3125,0.054688 0.5,0.0625 0.1875,0.011719 0.390625,0.015625 0.609375,0.015625 0.570313,0 1,-0.054687 1.28125,-0.171875 0.289063,-0.125 0.507813,-0.3125 0.65625,-0.5625 C 5.671875,-5.289062 5.75,-5.570312 5.75,-5.875 c 0,-0.457031 -0.1875,-0.847656 -0.5625,-1.171875 -0.375,-0.332031 -0.929688,-0.5 -1.65625,-0.5 -0.398438,0 -0.75,0.042969 -1.0625,0.125 z m 0,3.796875 c 0.457031,0.105469 0.90625,0.15625 1.34375,0.15625 0.707031,0 1.242188,-0.15625 1.609375,-0.46875 0.375,-0.320313 0.5625,-0.71875 0.5625,-1.1875 0,-0.300781 -0.085937,-0.59375 -0.25,-0.875 -0.167969,-0.289063 -0.445313,-0.519531 -0.828125,-0.6875 -0.375,-0.164063 -0.839844,-0.25 -1.390625,-0.25 -0.25,0 -0.464844,0.00781 -0.640625,0.015625 -0.167969,0.011719 -0.304688,0.027344 -0.40625,0.046875 z m 0,0"
           style="stroke:none" />
      </g>
    </g>
    <g
       transform="matrix(0.35277777,0,0,0.35277777,-14.967863,19.867858)"
       style="fill:#00008a;fill-opacity:1"
       id="g83">
      <g
         id="use81"
         transform="matrix(0.26458333,0,0,0.26458333,205.82031,160.46289)">
        <path
           inkscape:connector-curvature="0"
           id="path253"
           d="m 7.21875,-8.125 0.1875,2.703125 h -0.1875 c -0.242188,-0.8125 -0.585938,-1.394531 -1.03125,-1.75 -0.449219,-0.351563 -0.984375,-0.53125 -1.609375,-0.53125 -0.53125,0 -1.011719,0.136719 -1.4375,0.40625 -0.429687,0.261719 -0.765625,0.6875 -1.015625,1.28125 -0.242188,0.585937 -0.359375,1.308594 -0.359375,2.171875 0,0.71875 0.113281,1.34375 0.34375,1.875 0.238281,0.53125 0.585937,0.9375 1.046875,1.21875 0.457031,0.28125 0.984375,0.421875 1.578125,0.421875 0.519531,0 0.976563,-0.109375 1.375,-0.328125 C 6.503906,-0.882812 6.9375,-1.328125 7.40625,-1.984375 l 0.1875,0.125 C 7.1875,-1.148438 6.71875,-0.628906 6.1875,-0.296875 5.65625,0.0234375 5.023438,0.1875 4.296875,0.1875 2.984375,0.1875 1.96875,-0.300781 1.25,-1.28125 0.707031,-2.007812 0.4375,-2.863281 0.4375,-3.84375 0.4375,-4.644531 0.613281,-5.375 0.96875,-6.03125 1.320312,-6.695312 1.8125,-7.210938 2.4375,-7.578125 3.0625,-7.941406 3.742188,-8.125 4.484375,-8.125 c 0.570313,0 1.132813,0.140625 1.6875,0.421875 0.164063,0.085937 0.285156,0.125 0.359375,0.125 0.101562,0 0.191406,-0.035156 0.265625,-0.109375 0.101563,-0.101562 0.175781,-0.25 0.21875,-0.4375 z m 0,0"
           style="stroke:none" />
      </g>
    </g>
    <g
       transform="matrix(0.35277777,0,0,0.35277777,-14.967863,19.867858)"
       style="fill:#00008a;fill-opacity:1"
       id="g87">
      <g
         id="use85"
         transform="matrix(0.26458333,0,0,0.26458333,229.80469,139.36523)">
        <path
           inkscape:connector-curvature="0"
           id="path265"
           d="M 0.203125,0 V -0.21875 H 0.5 c 0.34375,0 0.582031,-0.109375 0.71875,-0.328125 0.082031,-0.125 0.125,-0.410156 0.125,-0.859375 V -6.546875 C 1.34375,-7.035156 1.289062,-7.34375 1.1875,-7.46875 1.03125,-7.644531 0.800781,-7.734375 0.5,-7.734375 H 0.203125 v -0.21875 H 3.4375 c 1.1875,0 2.085938,0.136719 2.703125,0.40625 0.625,0.273437 1.125,0.726563 1.5,1.359375 0.375,0.625 0.5625,1.351562 0.5625,2.171875 0,1.105469 -0.335937,2.027344 -1,2.765625 C 6.453125,-0.414062 5.300781,0 3.75,0 Z M 2.46875,-0.578125 c 0.5,0.117187 0.914062,0.171875 1.25,0.171875 0.90625,0 1.65625,-0.316406 2.25,-0.953125 0.601562,-0.644531 0.90625,-1.507813 0.90625,-2.59375 0,-1.101563 -0.304688,-1.96875 -0.90625,-2.59375 C 5.375,-7.179688 4.609375,-7.5 3.671875,-7.5 3.316406,-7.5 2.914062,-7.441406 2.46875,-7.328125 Z m 0,0"
           style="stroke:none" />
      </g>
    </g>
    <g
       transform="matrix(0.35277777,0,0,0.35277777,-14.967863,19.867858)"
       style="fill:#00008a;fill-opacity:1"
       id="g91">
      <g
         id="use89"
         transform="matrix(0.26458333,0,0,0.26458333,210.48047,102.99023)">
        <path
           inkscape:connector-curvature="0"
           id="path269"
           d="M 2.515625,-7.515625 V -4.375 H 4.25 c 0.457031,0 0.757812,-0.066406 0.90625,-0.203125 C 5.363281,-4.753906 5.476562,-5.070312 5.5,-5.53125 h 0.21875 v 2.765625 H 5.5 C 5.445312,-3.148438 5.394531,-3.394531 5.34375,-3.5 5.269531,-3.632812 5.148438,-3.738281 4.984375,-3.8125 4.828125,-3.894531 4.582031,-3.9375 4.25,-3.9375 H 2.515625 v 2.609375 c 0,0.355469 0.015625,0.574219 0.046875,0.65625 0.03125,0.074219 0.082031,0.132813 0.15625,0.171875 0.082031,0.042969 0.234375,0.0625 0.453125,0.0625 h 1.34375 c 0.445313,0 0.769531,-0.03125 0.96875,-0.09375 0.207031,-0.0625 0.40625,-0.179688 0.59375,-0.359375 0.238281,-0.25 0.488281,-0.617187 0.75,-1.109375 H 7.0625 L 6.375,0 H 0.25 v -0.21875 h 0.28125 c 0.1875,0 0.363281,-0.046875 0.53125,-0.140625 0.125,-0.0625 0.207031,-0.15625 0.25,-0.28125 0.050781,-0.125 0.078125,-0.378906 0.078125,-0.765625 V -6.5625 c 0,-0.5 -0.054687,-0.8125 -0.15625,-0.9375 C 1.085938,-7.65625 0.851562,-7.734375 0.53125,-7.734375 H 0.25 v -0.21875 h 6.125 l 0.078125,1.75 H 6.234375 C 6.148438,-6.617188 6.054688,-6.90625 5.953125,-7.0625 5.859375,-7.21875 5.710938,-7.335938 5.515625,-7.421875 5.359375,-7.484375 5.082031,-7.515625 4.6875,-7.515625 Z m 0,0"
           style="stroke:none" />
      </g>
    </g>
    <g
       transform="matrix(0.35277777,0,0,0.35277777,-14.967863,19.867858)"
       style="fill:#00008a;fill-opacity:1"
       id="g95">
      <g
         id="use93"
         transform="matrix(0.26458333,0,0,0.26458333,191.24609,68.138672)">
        <path
           inkscape:connector-curvature="0"
           id="path273"
           d="m 2.453125,-7.515625 v 3.125 H 3.90625 c 0.332031,0 0.570312,-0.070313 0.71875,-0.21875 0.15625,-0.144531 0.257812,-0.4375 0.3125,-0.875 h 0.21875 v 2.6875 H 4.9375 c 0,-0.300781 -0.042969,-0.523437 -0.125,-0.671875 C 4.738281,-3.613281 4.632812,-3.722656 4.5,-3.796875 4.363281,-3.867188 4.164062,-3.90625 3.90625,-3.90625 H 2.453125 v 2.5 c 0,0.40625 0.023437,0.671875 0.078125,0.796875 0.039062,0.09375 0.125,0.179687 0.25,0.25 0.164062,0.09375 0.34375,0.140625 0.53125,0.140625 H 3.609375 V 0 H 0.1875 v -0.21875 h 0.28125 c 0.332031,0 0.570312,-0.09375 0.71875,-0.28125 0.09375,-0.125 0.140625,-0.425781 0.140625,-0.90625 V -6.546875 C 1.328125,-6.941406 1.300781,-7.207031 1.25,-7.34375 1.21875,-7.4375 1.140625,-7.519531 1.015625,-7.59375 0.847656,-7.6875 0.664062,-7.734375 0.46875,-7.734375 H 0.1875 v -0.21875 h 5.921875 l 0.078125,1.75 H 5.984375 C 5.878906,-6.566406 5.757812,-6.835938 5.625,-7.015625 c -0.136719,-0.175781 -0.304688,-0.300781 -0.5,-0.375 -0.199219,-0.082031 -0.507812,-0.125 -0.921875,-0.125 z m 0,0"
           style="stroke:none" />
      </g>
    </g>
    <g
       transform="matrix(0.35277777,0,0,0.35277777,-14.967863,19.867858)"
       style="fill:#00008a;fill-opacity:1"
       id="g99">
      <g
         id="use97"
         transform="matrix(0.26458333,0,0,0.26458333,148.44922,45.841797)">
        <path
           inkscape:connector-curvature="0"
           id="path277"
           d="m 7.359375,-8.125 0.21875,2.5 H 7.359375 C 7.160156,-6.25 6.894531,-6.71875 6.5625,-7.03125 6.09375,-7.488281 5.484375,-7.71875 4.734375,-7.71875 c -1.011719,0 -1.777344,0.402344 -2.296875,1.203125 -0.449219,0.679687 -0.671875,1.480469 -0.671875,2.40625 0,0.761719 0.144531,1.453125 0.4375,2.078125 0.300781,0.625 0.6875,1.085938 1.15625,1.375 0.476563,0.292969 0.96875,0.4375 1.46875,0.4375 0.289063,0 0.570313,-0.035156 0.84375,-0.109375 0.269531,-0.070313 0.535156,-0.179687 0.796875,-0.328125 v -2.296875 c 0,-0.394531 -0.03125,-0.65625 -0.09375,-0.78125 -0.0625,-0.125 -0.15625,-0.21875 -0.28125,-0.28125 -0.125,-0.0625 -0.351562,-0.09375 -0.671875,-0.09375 V -4.34375 H 8.5 v 0.234375 H 8.34375 c -0.304688,0 -0.511719,0.101563 -0.625,0.296875 -0.074219,0.148438 -0.109375,0.433594 -0.109375,0.859375 v 2.4375 C 7.160156,-0.273438 6.71875,-0.0976562 6.28125,0.015625 5.84375,0.128906 5.351562,0.1875 4.8125,0.1875 c -1.53125,0 -2.699219,-0.492188 -3.5,-1.484375 -0.59375,-0.738281 -0.890625,-1.585937 -0.890625,-2.546875 0,-0.707031 0.164063,-1.378906 0.5,-2.015625 C 1.328125,-6.617188 1.875,-7.207031 2.5625,-7.625 c 0.582031,-0.332031 1.269531,-0.5 2.0625,-0.5 0.289062,0 0.550781,0.027344 0.78125,0.078125 0.238281,0.042969 0.578125,0.140625 1.015625,0.296875 0.21875,0.085938 0.363281,0.125 0.4375,0.125 0.070313,0 0.132813,-0.03125 0.1875,-0.09375 C 7.097656,-7.789062 7.132812,-7.925781 7.15625,-8.125 Z m 0,0"
           style="stroke:none" />
      </g>
    </g>
    <g
       transform="matrix(0.35277777,0,0,0.35277777,-14.967863,19.867858)"
       style="fill:#00008a;fill-opacity:1"
       id="g103">
      <g
         id="use101"
         transform="matrix(0.26458333,0,0,0.26458333,204.34766,42.642578)">
        <path
           inkscape:connector-curvature="0"
           id="path281"
           d="m 2.46875,-4.265625 h 3.6875 V -6.53125 c 0,-0.40625 -0.027344,-0.675781 -0.078125,-0.8125 C 6.046875,-7.4375 5.96875,-7.519531 5.84375,-7.59375 5.664062,-7.6875 5.484375,-7.734375 5.296875,-7.734375 h -0.28125 v -0.21875 h 3.40625 v 0.21875 h -0.28125 c -0.1875,0 -0.367187,0.046875 -0.53125,0.140625 -0.125,0.0625 -0.214844,0.15625 -0.265625,0.28125 -0.042969,0.125 -0.0625,0.386719 -0.0625,0.78125 v 5.125 c 0,0.40625 0.023438,0.671875 0.078125,0.796875 0.039063,0.09375 0.117187,0.179687 0.234375,0.25 0.175781,0.09375 0.359375,0.140625 0.546875,0.140625 h 0.28125 V 0 h -3.40625 v -0.21875 h 0.28125 c 0.332031,0 0.570313,-0.09375 0.71875,-0.28125 0.09375,-0.125 0.140625,-0.425781 0.140625,-0.90625 v -2.421875 h -3.6875 v 2.421875 c 0,0.40625 0.023438,0.671875 0.078125,0.796875 0.039063,0.09375 0.125,0.179687 0.25,0.25 0.164063,0.09375 0.34375,0.140625 0.53125,0.140625 h 0.28125 V 0 h -3.40625 v -0.21875 h 0.28125 c 0.332031,0 0.570313,-0.09375 0.71875,-0.28125 0.09375,-0.125 0.140625,-0.425781 0.140625,-0.90625 v -5.125 c 0,-0.40625 -0.027344,-0.675781 -0.078125,-0.8125 C 1.222656,-7.4375 1.144531,-7.519531 1.03125,-7.59375 0.851562,-7.6875 0.671875,-7.734375 0.484375,-7.734375 h -0.28125 v -0.21875 h 3.40625 v 0.21875 h -0.28125 c -0.1875,0 -0.367187,0.046875 -0.53125,0.140625 -0.125,0.0625 -0.214844,0.15625 -0.265625,0.28125 -0.042969,0.125 -0.0625,0.386719 -0.0625,0.78125 z m 0,0"
           style="stroke:none" />
      </g>
    </g>
  </g>
</svg>
